#<?php
//=====
class App_Controller_Admin_Product extends Controller
{
//.....
	public function form($product = array())
	{
//.....
		$product += $this->Model_Product->getRecord($product_id);
//-----
//>>>>> {php}
		$product['product_subscriptions'] = isset($product['product_subscriptions']) ? $product['product_subscriptions'] : $this->Model_Product->getProductSubscriptions($product_id);
//-----
//=====
		$defaults = array(
//-----
//>>>>>
			'product_subscriptions' => array(),
//-----
//=====
		);
//.....
		//Product Additional Images Template Defaults
		$product['images']['__ac_template__'] = array(
//.....
		);
//-----
//>>>>> {php}

		$product['data_subscriptions'] = $this->Model_Subscription->getRecords();

		$product['product_subscriptions']['__ac_template__'] = array(
			'subscription_id' => '',
			'name'            => '',
			'sort_order'      => 0,
		);
//-----
//=====
	}
//.....
}

//-----
